<svg xmlns="http://www.w3.org/2000/svg" version="1.0" viewBox="0 0 131.397929 131.353315">
  <path fill="#ff2600" d="M60.597929.453315c-.4.4-.7 6.7-.7 14.1v13.3h12.1l-.3-13.8-.3-13.7-5-.3c-2.8-.2-5.4 0-5.8.4zm-41 19.2-3.7 3.8 9.7 9.7 9.7 9.8 4-4.1 4.1-4-9.5-9.5c-5.2-5.2-9.7-9.5-10-9.5-.3 0-2.3 1.7-4.3 3.8zm78.3 5.7-9.5 9.5 4.1 4 4 4.1 9.7-9.8 9.7-9.7-3.7-3.8c-2-2.1-4-3.8-4.3-3.8-.3 0-4.8 4.3-10 9.5zm-41.4 13.1c-7.1 2.2-15.9 11.2-18 18.4-3.4 11.5-1.2 20.6 7.3 29.1s17.6 10.7 29.1 7.3c7.5-2.2 16.2-10.9 18.4-18.4 3.4-11.5 1.2-20.6-7.3-29.1-8.5-8.4-18-10.8-29.5-7.3zm-56.2 22.8c-.3.7-.4 3.3-.2 5.7l.3 4.4 13.8.3 13.7.3v-12.1h-13.5c-10.6 0-13.7.3-14.1 1.4zm103.6 4.6v6.1l13.8-.3 13.7-.3v-11l-13.7-.3-13.8-.3v6.1zm-79 32.5-9.5 9.5 4.1 4.1 4.1 4.1 9.7-9.7 9.7-9.8-3.7-3.8c-2.1-2.2-4.1-3.9-4.4-3.9-.3 0-4.8 4.3-10 9.5zm67.5-5.4-4 4.1 9.9 9.5 9.9 9.4 4.1-4 4.1-4.1-9.5-9.5c-5.2-5.2-9.7-9.5-10-9.5-.3 0-2.4 1.8-4.5 4.1zm-32.3 24.6.3 13.8h11l.3-13.8.3-13.7h-12.2l.3 13.7z"/>
</svg>
