<svg xmlns="http://www.w3.org/2000/svg" viewBox="0 0 32 32">
  <path d="M7 4v2h2v4c0 2.542969 1.367188 4.773438 3.40625 6C10.367188 17.226563 9 19.457031 9 22v4H7v2h18v-2h-2v-4c0-2.542969-1.367187-4.773437-3.40625-6C21.632813 14.773438 23 12.542969 23 10V6h2V4Zm4 2h10v4c0 2.773438-2.226562 5-5 5-2.773437 0-5-2.226562-5-5Zm1 2v2c0 2.210938 1.789063 4 4 4 2.210938 0 4-1.789062 4-4V8Zm4 9c2.773438 0 5 2.226563 5 5v4H11v-4c0-2.773437 2.226563-5 5-5Z"/>
</svg>
