<svg xmlns="http://www.w3.org/2000/svg" viewBox="0 0 171 89">
  <path d="m1 88 1-5v-2l1-3 1-1h1l1-1 2-1h1v-1l1-1-1-1-1-1-2 1-1 1H4l-1 1H2l-1 1v-5l-1-1 1-1-1-1 1-2 1-2 1-2H2c-1 1-1 1-1-1v-2l3-2H1v-1l1-1h1v-1l1-1H3v1H2l-1 1v-5h2v-1h1l1-1v-1l-2 1H2l-1 1v-1h1v-1h1l1-1h1v-1h1l1-1-1-1v1H5l-1 1H1l1-1h1v-1h1v-1h1l1-1h1v-2l-1 1-1 1H3v1-1h1v-1h1l1-1h1l2-2-2-1-1 1-1 1H4l-1 1H1l1-1 1-1h1l1-1 1-1h1l1-1 1-1v-1 1H6v1H5l-1 1-1 1H1l-1-1v-8h2v-1h1l1-1h1l1-1v-1H4v1H3l-1 1c-1 0-2-2 0-2l1-1h1l1-1h1l1-1h1v-1h1v-1H7l-1 1H5l-1 1H3c-1 0-1 0 0 0v-1h3v-1h1l1-1h1l1-1h1v-1h1l1-1h1l2-1h-5v1h-1l-1 1H8v1H7l-2 1H4v1H3l-1 1H1l-1-6c1 0 1 0 0 0v-2h1l1-2-1-1V5h7a43 43 0 0 1 10 2h2l1 1h2l1 1 1 1 2 2 1 2h1l1 1v2h1l1 1h2v-1h2l1-1 1-1h1l1-1h1l1-1h2v-1h1l1-1h1l1-1h1l1-1h1l1-1h1l1-1h2l1-1 1-1h1v1h-1l-1 1h-1l-1 1h-2v1h-2l-1 1-1 1h-1l-1 1h-2v1h-2v1h-1l-1 1h-2l-1 1c-1 0-2 2-1 3v1-1l-2-1 1 2v2-1l-1-1v-1h-1l-1 1 1 2h-1l-1-2v1l-1 1-1-1v3s0-1 0 0l-1-1-1-1-1 1-1 1 1 2v1l1 1v1l-1-2-1-1h-1v3l-1 1 1 2v1c-1 0-2 0-1 1v1l-1 1 1 2-1 1v1h1l1 1v1h1v1c1 0 1 0 0 0l-1-1h-1c-1 0-1 0 0 0v1l1 1 1 1h-3 1v1h1l1 2 2 1v1h1c1 1 1 1 0 0v-1l-2-1-1-2h2v1h1v1h1l1 1h2v1c1-1-1-3-2-3h-1v-1l-1-1h-1v-1l1 1h1v1h1l1 1h1l1 1-3-3v-1l1 1h1v1h1l2 1-2-2v-1h-1l-1-1h-1v-1h2v1h1v1h1l1 1 2 1-1-1-1-1-1-1-1-1h2v1h1v1l1 1h1l1 1h1l1 1v-1l-1-1h-1l-1-1h-1v-2h1v1l1 1h2-1v-1h2l1 1h1c1 0 1-1-1-1v-1h-1l-1-1-1-1-1-1-2-2 1 1h1l1 1 2 1v1l2 1h1l1 1-1-1-1-1-2-1-1-2-3-3 1 1h2v1h1v1h1l3 3-2-2v-1l-2-1v-1l1 1 1 1 2 1 1 1h1v-1l-2-1v-1l-2-2-2-2 3 2 1 1 1 1h1v1h1l2 1v1-1h-1c1-1 0-2-1-1v-1l-1-1-2-1v-1l-2-2h-1v-1l1 1 2 1v1l2 1 1 1h1v1h1l1 1h1l-1-1-1-1h-1l-1-1-1-1-1-1-1-1-1-1h1l1 1 1 1h1l1 1 1 1h1l1 1h2s0-1 0 0l-1-1h-1l-1-1h-1l-1-1-3-3h1l1 1h1l1 1h1l1 1 1 1 1 1h1l1 1h1l-1-1-1-1h-1l-1-1v-1h-1l-2-2h1l2 1 1 1 1 1h2l1 1v-1l-1-1-3-2-1-1-1-1h-1l-1-1v-1l1 1 2 1 1 1 1 1v1h2l1 1 1 1h1v-1l-1-1h-1v-1h-1c0 1 0 0 0 0l-2-1-1-1-1-2 1 1 1 1h1l1 1 1 1 2 1h1v-2l1 1 1-1 1 1v1c-1 0-1 0 0 0l1-1-1-2v-1h-1v-1l-1-1 2 1v1h1l1 1v1-2c-1 0-1 0 0 0v-1h-1l-1-1v-1h-1l-1-1h-1v-1l2 1 1 1h1l1 1 1 1h1v-1h-1l-1-1-1-1h-1l-1-1h2l1 1h1l1 1h1l-1-1h-2v-1h-1l-1-1h-1l-1-1v-1 1h2l1 1h1l1 1 1 1h1v-1h-1l-1-1-1-1h-1l-1-1v-1h1l1 1 1 1h1l1 1h2l1 1c1 0 1 0 0 0v-1h-1l-1-1h-1v-1h1l1 1h1v1h2-1v-1l-2-2-1-1h-1 2l1 1 1 2 3 2v-1l-1-1 2 1v-2l-2-1-1-2 2 1v1h1v1h1v1l1 1v-2l-1-1 2 1 1 1h1l1 1 1 1 1 1v2h-2l-1-1v-1l-1-1v2h-1l-1-1v1h-4v2h3l3 1h4v1l1 1c-1 0 0 0 0 0l1-1h1v1h1l1 1v-2l1 1v1l1 1h1v-1c0-2 1-2 1 0v1l1 1v1-2l1-1v4l-1 2v2h-1v1l1-1h1v-1h1v1c-1-1-1 0-1 1v1h-1l1 1v-1l1-1v-1 4l1-1v-2l1-1h-1l1-3v-2h1c2 1 3 1 3-1l2-1 1 1-1 1v1l-1 1-1 1-1 1h-1c0-1-2 0-2 2v1l-1 1v2-1h1v-1h1v-1h1-1v2l-1 1 2-1v-1l1-1v-1 3c-1 2-1 2 1 0v1c0 2 1 2 1 1v-1l1-1v-1l1-1v5-1h1v-2h1c0-2 1-2 1-1l-1 1v3-1l1-1v-1h1v2l1-1v-1l1-1v-1 5-1l1-1v-1l1-1v1h-1v3l1-1 1-1v-2h1v-2l1 1-1 1v2h1v-1l1-1v-2l1-1v1l-1 1v4-1h1v-2l1-1v-1l1-1v-1 3l-1 1v1c0 2 0 2 1 0v-1l1-1v-1h1v2h-1v1h1v-1l1-1v-1l1-2v-2 4c-1 2 0 2 0 0l1-1v-1l1-2v-1 5l-1 1v1l1-1v2h-1v1h-1v1h-1l-1 1h-1v3l1 1v5l-1-3v-3l-1-1-1-1-2 1h-2a49 49 0 0 1-16 0h-2l-1-1h-2l-1-1c-1-1-1 0-2 1v3-1h1v-1h1l-1 1-1 2v1l1-1h1v-1l1-1v1l-1 1-1 2h1l1-2h1v-1h1l-1 1v1l-1 2h-1l1 1v-1l1-1 2-2v1l-1 1v1l-1 2h1v-1h1v-1c1-1 1 0 0 0v2h-1v1c0 1 0 1 0 0h1l1-2h1c0-1 0 0 0 0v1l-1 1v1l-1 1a14 14 0 0 0 3-4l1 1-1 1v1h-1v1l2-2h1v-1h1l-1 1v1l-1 1v1h1l1-2 1-1v-1h1v1l-1 1v1h-1c-1 2 3 0 3-2l1-1v1l-1 1v2l1-1 1-1v-1h1v-1 1l-1 1v1l-1 1v1h1v-1h1v-1l2-2 1-1-1 1v1l-1 1v1l-1 1h1v-1l2-1v-1l2-1h-1v2h-1v2l2-2v-1h1v-1l1-1v2h-1v1l-1 1 3-2v-1l1-1v2l1-1v-1h1c0-1 0 0 0 0 0 1 0 2 1 1v-2 2l-1 1v2h-1l-1 1-1 1h-1l-1 1h-3c-2 0-2 0-2 2v1l-1-1v-1h-3a52 52 0 0 1-11-2v1l-1 1-1 1-3 3v-2h1l1-1 1-1v-1h-1l-1 1-1 2-1 1h-1v-1h1v-1h1v-3l-1 1v1l-1 1-1 1v1h-1l-1 1-1 1v-1h1v-1l1-1 2-1v-2l1-1v-1h-1v2h-1v-1l1-1v-1h-1v1l-1 1-1 1-1 1-1 1-1 1v-1l5-6h-1l-5 5h-1l1-1h1l1-1 1-1v-1l1-1 1-2-2 2-5 4v1l1 1v1l2 2v1h1l1 1 1 1 1 1h1l1 1 1 1h2l1 1h4-2l-1-1h-1 1l1-1h3v1c-1 0-1 0 0 0h1l1-1 1-1h1v-1 1l-2 2h5l1-1 1-1c0-1 0-1 0 0v2l1-1 1-1v-1l1-1v2l-1 1-1 1-1 1h-2l-1 1h-2l-2 1-1-1v1h-1l-2-1h-4l-2-1h-1l-2-1h-1l-2-1-1 1h-4l-4 1h-4l-2 1h-4l-3 1h-2l-3 1h-2l-3 1h-3a123 123 0 0 1-22-1l-1 1-1 2v3h-1v1l-1 1v1l-1 1-1 1h-8a55 55 0 0 0-11 1l-3-1zm20-1h2l1-1v-1l1-1v-1l1-2-1-2v-2l-1 3v4l-1 1v-1c0-1 0-1 0 0h-1v1l-1 1v-2l-1 2h-2v-1h-1l-1 1h1v1l1 1 3-1zm-11-1h1l2-1H9v1H8v1l2-1zm5 1v-1l-1 1h1zM3 85v1-1zm5-1 2-1 2-1h-1v-1l-1-1-2 1H7l-1 1H5v1c-1 0-1 0 0 0h2l-1 1h2zm10-1h2v-1h1v-1l1-1v-1l1-2v-3l-1-2v-4l1-1v-2h1l1 1-1 1 1 1h1l1 1h1l1 1 1 1h1l1 1h-2l-1-1-1-1h-2v-1h-2v1h1v1h1l1 1h-1l-2-1 1 2 1 1h2l1 1h1l1 1c2 0 2-1 1-1v-1h1l1 1v1h2v-1l1-1v1h1l1 1h1v1h1v-1l-1-1h-1v-1h-1 2v-1l1 1h2l-2-1-1-1h-1l-1-1-2-1-1-1c-1 0-1 0 0 0h1l2 1h1l1 1h1v1h1l1 1h1l1 1h1c1 0 1 0 0 0v-1h-1l-1-1h-1v-1h-1v-1h-2v-1h1l1 1h1v1h2l1 1h1l1 1h3-1l-1-1h-1l-1-1h-1l-1-1h-1l-1-1h-1 3l1 1h1l1 1h2l2 1-1-1h-1v-1h-1l-1-1h-2l-1-1h-1l-1-1h-1l-1-1h-1l-1-1h-1v-1h-2l-1-1-1-1h1l1 1h1l1 1 1 1h2l1 1h1c1 0 1 0 0 0l-1-1h3l1 1h1l1 1 2 1h1l1 1h3-1l-1-1h-1l-1-1h-2l-1-1-1-1h-1l-1-1h-1l-1-1h-2v-1h-1l-1-1h-1l-1-1h1c0-1 0-1 0 0h1l1 1h1l1 1h1l1 1h1v1h2l1 1h2l1 1 1 1h2l2 1-1-1h-1l-1-1h-1l-1-1h-2l-1-1-1-1h-1l-1-1h-2l-1-1-1-1-1-1h-1l-1-1h2v1h1l2 1 1 1h2v1h1l1 1h1l1 1h1l1 1h2l2 1h1c2 0 1 0-1-1h-2l-1-1h-1v-1h-2l-1-1h-1l-1-1h-1l-2-1-1-1-1-1-2-1h-1l-1-1h-1v-1H27l-4 1 1 1 1 1h-1l-1 1 2 1 1 1v1l-1-1h-1l-1-1 2 3h1l1 1h-4l-1 1v1l-1 2v-3l-1-3a166 166 0 0 1 4-41l1-1 1-1 1-1-1-1h-2l1-1 1-1h-1s-1 0 0 0l-2 1h-2v1h-1v1h-1l-1 1-1 1v1h-1v3l-1 1v3l-1 1v4l-1 2v2l-1 3v6a144 144 0 0 0 3 36l1 2 2-1zm-2-3v-2l-1-2 1-2 2-1h2v4c1 2 1 2-1 2l-1 1c0 1-2 2-2 0zm2-1v-2l-1 2h1zm-1-3v-1h1l-1-1v1l-1 1v1h1v-1zm13-2h-1v-1h2l1 1h-2zm4-1h1l1 1-2-1zm3 0h-1v-1h2c1 1 0 2-1 1zm-2-1v-1 1zm-3-2h-1l-1-1h2v1c1 0 1 1 0 0zm0-2h-1c-1 0-1-1 1-1l1 1h1-2zm5 0-1-1h1l1 1h1-2zm4 0h-1l-1-1h2s0 1 0 0l1 1h-1zm-13 0h-1v-1c-1 0 0 0 0 0l2 1h-1zm0-2h-1c-1-1-1-1 1-1h1l1 1v1l-2-1zm5 0-1-1h1v1h2l-1 1-1-1zm4 0h-1l-1-1h2l1 1h1-2zm-7-2h-1l-1-1h-1 2l1 1v1-1zm3 0h-1l-1-1c-1 0-1 0 0 0h2l1 2-1-1zm7 0-1-1-2-1h-1v-1h-1v-1l1 1 2 1 1 1h1l1 1h-1zm-12-3c-1 0-1 0 0 0h2l-1 1-1-1zm4 1v-1h-1v-1l2 1h1l-2 1zm-6-2-1-1h2v1h-1zm3 0v-1h2v1h-1c0-1 0-1 0 0h-1zm3-1h2-2zm3 0c-1-1 0-1 1-1v1h-1zm-9-1-1-1h2l1 1c1 0 1 0 0 0h-2zm4-1h-1l-1-1 2 1h1v1l-1-1zm3 0-1-1v-1 1h1l1 1h-1zm3 0h-1l-1-1h2l1 1v1l-1-1zM21 20l1-1h1s-1 2-2 1zM5 81l1-1h2l1-1h1v-1l1-1H6l-1 1-1 2v1h1zm38-4v-1 1zm58-2v-1l-1 1h1zm-31-2 1-1c2 0 1 0 0-1h-2v1h-1v1h2zm5-2-1-1h-1l-2-1h-1v1l1 1h4zM3 71c0-2-1-2-2-2v1l1 1h1zm51 0-1-1h-1l-1-1h-2l-1-1h-1l-1-1h-1l-1-1v1l1 1h2l1 1h2l1 1h1l1 1h1zM5 70h1l1-1h1v-2h1l1-1H6l-1 1v2H4v1h1zm72 0-1-1h-3v-1h-2l1 1h1l2 1h1l1 1v-1zm9 0h-1 1zM3 68h1-2l1 1v-1zm74 0h-1l-1-1h-1v-1h-2v1h2l1 1h2zm-20 0h-1 1zM3 66h1l1-1h1l1-1 1-1H7l-1 1H5v1l-2 1c0 1 0 1 0 0zm69 0h-1c0 1 0 1 0 0h1zm-11-1h-1l-1-1h-1l-1-1-3-1-1-1h-2l-1-1-1-1h-1l-1-1h-1v-1h-1l-2-1-2-1-1-1h-1c-2 0-2 0-1 1h1v1h1l1 1h2l1 1h1v1h1l1 1h1l1 1h1l1 1h1l1 1h2l1 1h1l1 1h3zM5 63h1l1-1h1l1-1H6l-1 1v1l-2 1 2-1zm57 1-1-1-1-1h-1l-1-1h-1l-1-1h-1v-1h-2l-1-1h-1l-1-1h-1l-1-1h2l-1-1h-2v-1h-1l-1-1h-2v2h1v1h1l1 1h2l1 1 1 1h2v1h1l1 1h2l1 1h1l1 1h2l1 1zm0-2h-1 1zm51-1h-8l-2-1h-2l-1-1h-1l-1-1h-1l-1-1h-1v-1h-2l-1-1h-1v-1h-1v1l2 1h1l1 1h1v1h1l1 1h1c-1 0 0 0 0 0l1 1h2l1 1h5l3 1 3-1zm-53 0-1-1h-1l1 1h1zm25-2a16 16 0 0 0 2-3c1 0 1-1 0 0h-1v1l-2 1-2 2v1l3-2zm-23 1c0 1 0 1 0 0zM7 60v-1l1-1-1 1-1 1h1zm50 0v-1h-1l-1-1h-2 1l1 1h1l1 1c1 0 1 0 0 0zm4 0-1-1h-1v-1h-2l-1-1h-1v-1h-1l-1-1h-1v1h1l1 1h1l1 1h1l1 1h2l1 1zM5 59h1l1-2-1 1-2 2 1-1zm76 0 1-1v-2l1-1-1-1 1-1 1 1-1-1v-2l-1-2v-2l-1 1-2 2-1 1 1 4v-1c0-2 1-2 1-1v6h1zm-18-1s1 0 0 0zm-1 0v-1h-3v-1h-1l-1-1h-2l-1-1-1-1h-2v-1h-1l-1-1h-1l2 2h1l1 1 1 1h2l1 1h1l1 1h2l1 1h1zm18 0-1-2v2h1zm-14-1h-2l2 1v-1zm3 0-1-1-1-1h-2l-1-1h-1l-1-1h-1l-1-1h-1l-1-1h-1l-1-1h-2v1h1l1 1h1l1 1h2l1 1h1v1h2l2 1 1 1h2zm-6-1h-1l-1-1h-1l-1-1h-1l-1-1h-1v-1h-2l-1-1h-1v-1l-1 1h1l1 1h1v1h2l1 1 1 1h1l2 1h2zm17 0h-1 1zM7 55h1-2 1zm44 0-1-1h-1v-1h-1l-1-1h-1v1l2 1h1l1 1h1zm17 0-1-1h-1v-1h-2l-1-1h-1v-1h-2l-1-1h-1l-1-1h-1l1 1h1v1h2l1 1 1 1h1l2 1h1l1 1h1zm27 0-1-1v1h1zm-25-2-1-1h-1l-1-1h-2v-1h-1l-1-1h-1l-1-1h-1l-1-1v1l1 1h1l1 1h1v1h2l1 1h1v1h3c0 1 0 1 0 0v1-1zM7 54l1-1v-1l-1 1v1zm18-1h-1v-1h-1v1h1v1l1-1zm3 0h-1v-1l-2-1-2-2v2h1l1 1 1 1h2zm62 0h-1 1zm-60 0-1-1 1 1zM3 51h1l1-1H3v2-1zm69 0h-2v-1h-1l-1-1h-2v-1l-2-1-1-1h-1l-1-1h-1l2 2v1h1l1 1h1l1 1h2v1h2l1 1 1-1zM7 51h1v-1l1-1H8l-1 1-1 1h1zm21 0v-1h-1v-1l-1-1h-1l-1-1h-1l1 1v1h1l1 1 1 1h1s1 0 0 0zm3 0h-1 1zm41-2h-1s-1 0 0 0l-1-1h-2v-1h-1l-1-1h-1v-1h-2l1 1h1l1 1h1l1 1 1 1h2v1l1-1zm18 0 1-1v-1l1-1v-2h1-1l-1 1v1h-1v2l-1 1h1zm2 0v-1h1v-2l-1 1v1l-1 1h1zM9 48l1-1-2 1H7s-1 0 0 0h2zm75 0 1-1h-1c0 1 0 0 0 0v-2 1l1-1 1 1v-1l-1-2 1-1v1h1v-1l1 1v-2l-2-2h-1c-1 0-1 0 0 0l-1-1 2-1v1h1l1 1c0 1 0 1 0 0v-1h-1v-1l-1-1v-1l1 1 1 1h1l-1-1v-1h-1c0-1 1-1 2 1h1l-1-1c0 1 0 0 0 0v-1l-1-1v-1l1 1 1 1v1l1 1v-1l-1-1v-1l-1-1h1l2 2-1-1v-1l1 1 1 1v-1l-1-2h1v-1l-2 1h-1l-4-1v1l-1 4-1 2v1l-1 2-1 4 1 1c-1 0 0 0 0 0l1 2v1zm-47 0-1-1v1h1zm33-1-1-1h-1l-1-1v1h1l2 1c1 0 1 0 0 0zm3 0-1-1-1-1h-2v-1l-2-1h-1l2 2h1l1 1h2v1h1zm44-1h2v-1h3-6l-1 1h-8l-2-1h-3l-1-1h-2l-1-1h-1v-1h-3l1 1h1l1 1h2l1 1h1l2 1h14zm-23 0-1-2v2h1zm-84-1v-2l-1 1-1 1H7h3zm12 0s0 1 0 0zm51 0-1-1h-1l-1-1-1-1h-2 1v1c1 0 1 0 0 0h1l2 1v1h2v1-1zm1 0v1-1zm-31 0h-1c0-1 0-1 0 0h1zm4 0-1-1v1h1zm19 0v-1l-1 1h1zm-56-3v-1H9v1H8h2zm1-4v-1l-2 1h2zm0-3 1-1h-2v1h1zm-7-2h1s0-1 0 0v-1h1l1-1 2-1h1v-2l-1 1H8l-1 1H6v1H5l-1 1-2 1h2zm60 0v-1l-1 1h1zm1 0v-1 1c-1 0 0 0 0 0zM2 32v-1h1l1-1h2v-1l1-1v-1l-1 1H5l-1 1H3l-2 2v1h1zm10-1v-1h-1l1 1zm56-2h-1l1 1v-1zM3 28l-1-1-1 1h2zm10-1c1 0 1 0 0 0h-1v1l1-1zm-8-1h1l1-1 1-1 2-2H9l-1 1-1 1H6l-1 2zm6 0v-2 1h-1v1H9h2zm3-2v-1l-1 1h1zm69-2h-1 1zm-70 0-1-1-1 1h2zm-4 0v-1h1l1-1v-1l-1 1H9l-1 1H7v1h2zm75-1h-1l1 1v-1zm-70-3h1-2l1 1v-1zm-1-2 1-1h-2v1h1zM1 16v-1 1zm1-1v-1 1zm15-1v-2l-2 2h2zM7 13h1v-1H3l1 1h3zm12-1 1-1h-1v-1l-1 1h-1l1 1h1zm-8-1h1l2-1c2 0 1-1-1-1l-2 1v2-1zm-3 0 1-1h1-3c-1 1-1 1 1 1zm14-1V9h-2v1h2zm-3-2h-1V7h-2v1h1l2 1V8zM6 7H5v1l1-1zm4 0c0-1 0-1 0 0H8h2zM2 77h1-1zm3-2 1-1v1H5zm88-3v-1h1l-1 1zm-3-1v-2h1l1 1 1-2v1l-1 1-2 1zm-1-3 1-1v1h-1zm23-1 1-1v2l-1-1zm-27-1 1-1 2-1 1-1h1-1v1h-1l-1 1c-1 2-2 2-2 1zM29 44v-1h-1v-1l2 1-1 1zm8-2-1-1-1-1 1 1h1v1zm-4-1-1-1h2v1h-1zm79 0v-1 1c0 1 0 0 0 0zm-83-1c-1-1-1-2 1 0l1 1-2-1zm9 1v-1h1v1h-1zm-12-1-1-1 2 2-1-1zm90 0v-1h1l-1 2v-1zm-80-2h-1 2v1l-1-1zm-3 0h1-1zm97-3v-3l1 6c-1 1-1 0-1-3zM27 38l-1-1h1l1 1h-1zm3 0c0-1 0-1 0 0h1-1zm95-1s0-1 0 0zm-88-1-1-1 2 1h-1zm62-2h1l-1 1v-1zm-61 0h-1 2-1zm3 0v-1 1zm1-1-1-1v-1h1v1h1l-1 1zm57-1v-1 1c0 1 0 0 0 0zm1 0 1-2v2h-1zm10 0v-1h-1l-2-1h-3v-1h-2l-1-1h-2l-2-1h-2l-1-1h-1v-1h1l1 1h2l1 1h1l-1-1h-1v-1h-1l-1-1h1l1 1h1l1 1h1v1h1l2 1 2 1h1v1-1h3v1h2l-1-1h1v-1h-1l-1-1v-1h2l1 1h1v1h1v2l1-1 1-1 2-1v-3 1l-2 2h-1l-1-1h-3l-1-1h-1l-1-1h-1v1h1-3l-1-2 2 1h1-1v-1l-1-1h-1l1-1 1 1v1h1v-1h-1 5l1 1h1l4 1 1-1v-1l-1-1v-1h-1l-1-1h-1l-1-1h-2l-1-1h-2l-1 1v1l-1 1h-1v-1h1v-1c1-1 1-3-1-3l-1-1h-1v-1h-2l-1-1-1-1v-1h-1V9h-3l-1-1h-5l-1-1h-1l-2-1h-2l-2-1h-1l-2-1H68l-2 1h-2l1-1h2l2-1h12l2 1h2l2 1h2v1h3c0 2 1 2 1 1 0-2 1-2 1-1l1 1v1h1l-1-1V6l1 1 1 1V6l1 1v1h2V7v1h1v1c0 1 1 1 1-1l1 1v1l1 1h2v1h2l1 1h1v-1l-1-1V8v1l1 1v1l2 2-1-2V9l1 1v2h1l1 2v-2l1 1c0 1 1 2 2 1l3 1 1-2 1 1v1l1-1v-3 3l2 1h2v1l1-1h1v-1h2v-1l1-1h-1v-1l1 1v2h1l1-1v1l1 1v-1l1-1v2l1-1h1v1l1-2h1v1l1 1 1-2v2c1 1 1 0 2-1v-1c1 0 1 0 0 0v-1l1 1v2l1-1 1 1 1-1h1l1-1h1l1 2v-1c0-2 1-2 1-1h1l1-1v2h1v-1h1v1h1l1-1c0-1 0-1 0 0v1c1 1 1 1 1-1s1-2 1 0 1 2 1 1l1-1v-1 1c0 1 1 3 1 1v-1l1-1v1l1 2v-2l1-1 1 1c0 2 1 2 1 0h1v-1h1-1v1l-1 2h-1v1h-1l-1 1h-6c0 1 0 1 0 0h-7l-2 1h-2a35 35 0 0 1-13-1l-5 1c-1 1-1 0-1-2s-1-2-1 0v2l-6-1h-8l1 1h1v1l1-1h1v1l1 2h2l1 1h1l1 1 2 1v1h1v1l1 2v-1l-2-1-1-1-1-1-1-1h-1v-1h-2l-1-1v3l-1 3-1 2h-1l-1 1v1h-1l-1 1h-4zm6-7h-1l1 1v-1zm-2-1h-2l-2-1h-2l2 1h3v1l1-1zm35-6 1-1h-12c0-1 0-1 0 0-1 0 0 0 0 0h1l10 1zm-35-1-1-1-2-1-2-1v2h2l1 1h2zm50 0-1-1h-8 2l1 1h6zm-61-5v-1 1c-1 0 0 0 0 0zm-3-2s0-1 0 0zM32 31c0-1 0-1 0 0h1-1zm6 0h1v1l-1-1zm92-1v-1 2-1zm-95 1v-1 1h1-1zm64 0v-2 1h1v1h-1zm-73-1s0-1 0 0l1 1-1-1zm3 0c0 1 0 1 0 0zm10-1h-1l1-1 1 1v1h1l-2-1zm-6 0v-1c-1 0 0 0 0 0l2 1h-2zm15 0h1l-1 1v-1zm-18 0c0-1 0-2 1-1v1h-1zm12 0v-1 1zm9-1s0-1 0 0v1-1zm10 1-1-1h-1v-1h-1v-1l1 1h1l1 1h1l1 1h-2zm32 0v-2h1v2h-1zm-49-1v1-1zm-3-1h-1l-1-1h1l1 2v-1zm-4 0v-1l1 1h-1zm8 0 1-1v1h-1zm-14-1-1-1h1l1 1h-1zm3 1v-1h1v1h-1zm14 0 1-1v1h-1zm43-1h1v1l-1-1zm10 0-1-1h-1l-1-1h-1l-1-2 2 1 1 1h1v1h1v1h1-1zm-54-1-2-2 1 1h1l1 1c1 0 0 0 0 0h-1zm3 0h-1v-1l2 1h-1zm6 0-2-3h-1l-1-1 1 1h1l1 1h1v1l1 1h-1zm-3 0-1-1-1-1-1-1c-1 0-1 0 0 0h1l1 1 1 1h1v1h-1zm6 0-1-1s-2-1-1-2l1 1 1 1 1 1h-1zm30 0 1-1 1-1h1l1 1h-3l-1 1zm13 0v-1l1 1h-1zm-40-1h-1v-1h-1l-1-1h-1l-1-1-1-1v-1l1 1 1 1h1l1 1 1 1 2 2-1-1zm-24 0-1-1h1v1zm5 0v-1l1 1h-1zm45-1v-1h-1l-1-1-1-1v-1l-1-1h1l1 1 1 1v1h1l1 1v1h-1zm4-1-1-1v-1h-1v-1c0-1 0-1 0 0l2 1 1 2 1 1-2-1zm-37 0v-1h1v1h-1zm6 0 1-1-1 1zm27-2v-1l1 1h-1zm34-1h1v-1h1l-1 1h-1zm-46 0c0-1 0-1 0 0 1 0 1 0 0 0zm50-1h1c2 0 2 0 0 1l-1-1zm-64 0h1l-1 1v-1zm-23 0c-1 0 0-1 0 0h1-1zm30 0h1-1zm17 0 1-1v1h-1zm-44 0-1-1h-1v-1l1 1h1l1 1h-1zm37-1h1-1zm4 0v-1l1 1h-1zm-40 0-1-1h-1l1-1v1h1l2 1h-2zm3-1-1-1h-1 2l1 1h-1zm81-1v-3 3zm-80-1v-1l1 1c1 0 1 0 0 0h-1zm72-1-1-2 1-1v3zm-70 0-1-1h1v1zm67-1v-2 1l1 2-1-1zm13 0v-1 1c0 1 0 0 0 0zm4 0 1-1v2l-1-1zm-19-1V9v2zm-7-1-1-1h1v1h1l-1 1v-1zm-54 0h1c1 0 1 0 0 0h-1zm51 0V7v1l1 1-1 1zM55 9l1-1 1 1h-2zm2-1 1-1 1 1h-2zm2-1 1-1 1-1h2l-1 1h-1l-1 1h-1zm3 0h1-1zm103 0 3 1-3-1zm-3-1h2-2zm-3-1h3l-1 1-2-1zm-5 0h-2l-5-1h-9a70 70 0 0 1 15 0 21 21 0 0 1 5 1c1 0 1 0 0 0h-4zM60 5l1-1v1h-1zm2-1 1-1h2V2h2l1-1h2-1l-1 1h-1l-1 1h-2l-1 1h-1zm70-1h-1l-3-1 9 1-2 1-3-1zm-10 0-7-1a68 68 0 0 1-12 0l-5-1h-5l-5-1h-5 4a60 60 0 0 1 12 1h13a50 50 0 0 1 10 1h4l-4 1zm4-1h2l-1 1-1-1zM75 0h3-3z"/>
</svg>
