<svg xmlns="http://www.w3.org/2000/svg" viewBox="0 0 32 32">
  <path d="m16 5-.3125.28125L4.28125 16.8125l-.6875.6875.6875.71875 9.5 9.5.71875.6875.6875-.6875L26.71875 16.3125 27 16V5Zm.84375 2H25v8.15625l-10.5 10.4375L6.40625 17.5ZM22 9c-.550781 0-1 .449219-1 1s.449219 1 1 1 1-.449219 1-1-.449219-1-1-1Z"/>
</svg>
